test.vcd
$date today $end
$timescale 1 ps $end
$scope module top $end
$var reg 1 ! clk $end
$var wire 16 " Q0.rdrv_real $end
$var wire 16 # Q0.rdrv_imag $end
$var wire 16 $ Q2.rdrv_real $end
$var wire 16 % Q2.rdrv_imag $end
$var wire 16 & DAC_DAC0 $end
$upscope $end
$enddefinitions $end
#0
$dumpvars
0!
bx "
bx #
bx $
bx %
bx &
$end
#1
b0 "
#2
b0 #
#3
b1011110001111 "
#4
b1100010001111111 #
#5
b1100001100000111 "
#6
b1001101110001 #
#7
b11010110100111 "
#8
b10001011100010 #
#9
b1111100100000111 "
#10
b1100000001100011 #
#11
b1101001100101101 "
#12
b10110110101101 #
#13
b11111110111100 "
#14
b10111000110 #
#15
b1101110000011101 "
#16
b1100101100000100 #
#17
b1110110110110110 "
#18
b11110101010100 #
#19
b11101100001100 "
#20
b1110011101010011 #
#21
b1100011110000011 "
#22
b1110000111101100 #
#23
b110001111100 "
#24
b11111011000100 #
#25
b10100010101101 "
#26
b1100111010011000 #
#27
b1100000000000001 "
#28
b1111111111001101 #
#29
b10100001011101 "
#30
b11000110101001 #
#31
b110011100001 "
#32
b1100000101010000 #
#33
b1100011101010011 "
#34
b1110110111001 #
#35
b11101011100100 "
#36
b1100100001100 #
#37
b1110111000011001 "
#38
b1100001010001111 #
#39
b1101101111001000 "
#40
b11010011000011 #
#41
b11111111000101 "
#42
b1111101010100001 #
#43
b1101001101110111 "
#44
b1101001000001011 #
#45
b1111100010100001 "
#46
b11111110010010 #
#47
b11010111011111 "
#48
b1101110101110100 #
#49
b1100001100100111 "
#50
b1110110000101101 #
#51
b1011100101111 "
#52
b11101110100110 #
#53
b1111101111101 "
#54
b1100100001001001 #
#55
b1100000011110001 "
#56
b101011100111 #
#57
b11000001011110 "
#58
b10100111101000 #
#59
b111001111 "
#60
b1100000000001000 #
#61
b1100110101010111 "
#62
b10011100011011 #
#63
b11111001011000 "
#64
b111001110011 #
#65
b1110001110110110 "
#66
b1100011010011001 #
#67
b1110010101111011 "
#68
b11101000111110 #
#69
b11110111011111 "
#70
b1110111110100110 #
#71
b1100110000101011 "
#72
b1101101001110111 #
#73
b1111000101 "
#74
b11111111100011 #
#75
b10111100010000 "
#76
b1101010010100010 #
#77
b1100000010100011 "
#78
b1111011100001000 #
#79
b10000100101110 "
#80
b11011010111001 #
#81
b1010101011001 "
#82
b1100001110101011 #
#83
b1100001111001010 "
#84
b1010110101110 #
#85
b11011011101000 "
#86
b10000011100001 #
#87
b1111011010101111 "
#88
b1100000010110000 #
#89
b1101010011100101 "
#90
b10111101001101 #
#91
b11111111101000 "
#92
b1101101010 #
#93
b1101101000101110 "
#94
b1100110001100000 #
#95
b1110111111111101 "
#96
b11110111110110 #
#97
b11101000011001 "
#98
b1110010100101010 #
#99
b1100011001110001 "
#100
b1110010000000111 #
#101
b111011001011 "
#102
b11111001000011 #
#103
b10011011010011 "
#104
b1100110100100000 #
#105
b1100000000001010 "
#106
b1000101001 #
#107
b10101000101100 "
#108
b11000000100011 #
#109
b101010001111 "
#110
b1100000011100001 #
#111
b1100100001110110 "
#112
b1111111001100 #
#113
b11101111000111 "
#114
b1011011011011 #
#115
b1110101111010111 "
#116
b1100001101000011 #
#117
b1101110111000001 "
#118
b11011000010000 #
#119
b11111110000111 "
#120
b1111100001000111 #
#121
b1101000111001100 "
#122
b1101001110111000 #
#123
b1111101011111011 "
#124
b11111111001101 #
#125
b11010010001111 "
#126
b1101101101111110 #
#127
b1100001001110110 "
#128
b1110111001101111 #
#129
b1100101011111 "
#130
b11101011000001 #
#131
b1110101101001 "
#132
b1100011100101010 #
#133
b1100000101100011 "
#134
b110100111001 #
#135
b11000111100010 "
#136
b10100000010111 #
#137
b1111111101110010 "
#138
b1100000000000010 #
#139
b1100111011010010 "
#140
b10100011110011 #
#141
b11111011010110 "
#142
b110000100100 #
#143
b1110000110011100 "
#144
b1100011110101110 #
#145
b1110011110100110 "
#146
b11101100101111 #
#147
b11110100111010 "
#148
b1110110101100000 #
#149
b1100101011010001 "
#150
b1101110001101000 #
#151
b11000011111 "
#152
b11111110110100 #
#153
b10110101101110 "
#154
b1101001011101101 #
#155
b1100000001011001 "
#156
b1111100101100001 #
#157
b10001100101101 "
#158
b11010101110110 #
#159
b1001100011011 "
#160
b1100001011101100 #
#161
b1100010010100001 "
#162
b1011111100011 #
#163
b11100000010101 "
#164
b1111011010101 #
#165
b1111010001011011 "
#166
b1100000100010011 #
#167
b1101011010101011 "
#168
b11000011011100 #
#169
b11111111111101 "
#170
b100001110 #
#171
b1101100001001101 "
#172
b1100110111001110 #
#173
b1111001001001001 "
#174
b11111010000010 #
#175
b11100100010001 "
#176
b1110001100001001 #
#177
b1100010101110011 "
#178
b1110011000101011 #
#179
b1000100010101 "
#180
b11110110101101 #
#181
b10010011101100 "
#182
b1100101110111010 #
#183
b1100000000101010 "
#184
b10010000101 #
#185
b10101111101011 "
#186
b10111010001100 #
#187
b100000111000 "
#188
b1100000010001001 #
#189
b1100100110101100 "
#190
b10000111010011 #
#191
b11110010010100 "
#192
b1010010100011 #
#193
b1110100110011101 "
#194
b1100010000001100 #
#195
b1101111111000101 "
#196
b11011101001010 #
#197
b11111100110011 "
#198
b1111010111110001 #
#199
b1101000000110010 "
#200
b1101010101110100 #
#201
b1111110101010110 "
#202
b11111111110001 #
#203
b11001100101101 "
#204
b1101100110010011 #
#205
b1100000111011011 "
#206
b1111000010111000 #
#207
b1101110000101 "
#208
b11100111000111 #
#209
b1101101001011 "
#210
b1100011000011110 #
#211
b1100000111101010 "
#212
b111110000111 #
#213
b11001101010100 "
#214
b10011000111001 #
#215
b1111110100010110 "
#216
b1100000000010010 #
#217
b1101000001011101 "
#218
b10101010111100 #
#219
b11111100111101 "
#220
b100111010000 #
#221
b1101111110001110 "
#222
b1100100011010111 #
#223
b1110100111011001 "
#224
b11110000001010 #
#225
b11110001111111 "
#226
b1110101100100001 #
#227
b1100100110001010 "
#228
b1101111001100100 #
#229
b100001111000 "
#230
b11111101101111 #
#231
b10101110111100 "
#232
b1101000101001000 #
#233
b1100000000100101 "
#234
b1111101110111011 #
#235
b10010100100000 "
#236
b11010000100000 #
#237
b1000011010111 "
#238
b1100001001000010 #
#239
b1100010110001101 "
#240
b1101000010000 #
#241
b11100100101110 "
#242
b1110010111101 #
#243
b1111001000001010 "
#244
b1100000110001100 #
#245
b1101100010000000 "
#246
b11001001011010 #
#247
b11111111111100 "
#248
b1111111010110001 #
#249
b1101011001111010 "
#250
b1100111101001110 #
#251
b1111010010011010 "
#252
b11111011111001 #
#253
b11011111110101 "
#254
b1110000011110011 #
#255
b1100010010001001 "
#256
b1110100001011001 #
#257
b1001101011000 "
#258
b11110100000001 #
#259
b10001011111000 "
#260
b1100101001100111 #
#261
b1100000001100000 "
#262
b11011011111 #
#263
b10110110011011 "
#264
b10110011100101 #
#265
b10111011111 "
#266
b1100000001000110 #
#267
b1100101011110101 "
#268
b10001111001110 #
#269
b11110101001100 "
#270
b1001001100011 #
#271
b1110011101101011 "
#272
b1100010011101010 #
#273
b1110000111010101 "
#274
b11100001110001 #
#275
b11111011001001 "
#276
b1111001110011101 #
#277
b1100111010101000 "
#278
b1101011100111111 #
#279
b1111111110110011 "
#280
b11111111111111 #
#281
b11000110111001 "
#282
b1101011110110110 #
#283
b1100000101010101 "
#284
b1111001100000110 #
#285
b1110110100010 "
#286
b11100010111001 #
#287
b1100100100100 "
#288
b1100010100100110 #
#289
b1100001010001000 "
#290
b1000111001110 #
#291
b11010010110100 "
#292
b10010001001110 #
#293
b1111101010111011 "
#294
b1100000000111001 #
#295
b1101000111111001 "
#296
b10110001110111 #
#297
b11111110001111 "
#298
b11101111001 #
#299
b1101110110001010 "
#300
b1100101000010011 #
#301
b1110110000010101 "
#302
b11110011010001 #
#303
b11101110101111 "
#304
b1110100011101001 #
#305
b1100100001010110 "
#306
b1110000001101100 #
#307
b101011001110 "
#308
b11111100010100 #
#309
b10100111111011 "
#310
b1100111110110011 #
#311
b1100000000001000 "
#312
b1111111000010111 #
#313
b10011100000110 "
#314
b11001010111000 #
#315
b111010001100 "
#316
b1100000110101110 #
#317
b1100011010001101 "
#318
b1110000110011 #
#319
b11101000110100 "
#320
b1101010011100 #
#321
b1110111110111111 "
#322
b1100001000011010 #
#323
b1101101001100010 "
#324
b11001111000110 #
#325
b11111111100100 "
#326
b1111110001010101 #
#327
b1101010010110101 "
#328
b1101000011011111 #
#329
b1111011011101111 "
#330
b11111101011010 #
#331
b11011011000110 "
#332
b1101111011101000 #
#333
b1100001110110100 "
#334
b1110101010001111 #
#335
b1010110010101 "
#336
b11110000111111 #
#337
b10000011110111 "
#338
b1100100100100110 #
#339
b1100000010101100 "
#340
b100100110111 #
#341
b10111100111100 "
#342
b10101100101110 #
#343
b1110000100 "
#344
b1100000000011010 #
#345
b1100110001010001 "
#346
b10010110111101 #
#347
b11110111101111 "
#348
b1000000011100 #
#349
b1110010101000001 "
#350
b1100010111011100 #
#351
b1110001111101111 "
#352
b11100110000100 #
#353
b11111001001001 "
#354
b1111000101001110 #
#355
b1100110100110000 "
#356
b1101100100011000 #
#357
b1000001111 "
#358
b11111111110111 #
#359
b11000000110100 "
#360
b1101010111101000 #
#361
b1100000011100110 "
#362
b1111010101011000 #
#363
b1111110110101 "
#364
b11011110010111 #
#365
b1011011110011 "
#366
b1100010001000011 #
#367
b1100001100111011 "
#368
b1010000010000 #
#369
b11011000000010 "
#370
b10001001010101 #
#371
b1111100001100001 "
#372
b1100000001110110 #
#373
b1101001110100101 "
#374
b10111000100010 #
#375
b11111111001010 "
#376
b10100011111 #
#377
b1101101110010011 "
#378
b1100101101100010 #
#379
b1110111001010111 "
#380
b11110110000011 #
#381
b11101011001011 "
#382
b1110011010111001 #
#383
b1100011100110110 "
#384
b1110001010000000 #
#385
b110100100000 "
#386
b11111010100011 #
#387
b10100000101011 "
#388
b1100111000101110 #
#389
b1100000000000001 "
#390
b1110100 #
#391
b10100011011111 "
#392
b11000100111111 #
#393
b110000111101 "
#394
b1100000100101111 #
#395
b1100011110100010 "
#396
b1111001001101 #
#397
b11101100100101 "
#398
b1100001110010 #
#399
b1110110101111000 "
#400
b1100001010111111 #
#401
b1101110001010010 "
#402
b11010100100000 #
#403
b11111110110110 "
#404
b1111100111111010 #
#405
b1101001011111111 "
#406
b1101001010000000 #
#407
b1111100101000111 "
#408
b11111110100100 #
#409
b11010110000100 "
#410
b1101110011101000 #
#411
b1100001011110100 "
#412
b1110110011001101 #
#413
b1011111001011 "
#414
b11101101101001 #
#415
b1111011101011 "
#416
b1100011111111000 #
#417
b1100000100001110 "
#418
b101110001100 #
#419
b11000011001011 "
#420
b10100101101001 #
#421
b100101000 "
#422
b1100000000000100 #
#423
b1100110110111110 "
#424
b10011110011111 #
#425
b11111001111101 "
#426
b110111010000 #
#427
b1110001100100000 "
#428
b1100011011100011 #
#429
b1110011000010100 "
#430
b11101010000011 #
#431
b11110110110011 "
#432
b1110111100000100 #
#433
b1100101111001001 "
#434
b1101101011111111 #
#435
b10001101100 "
#436
b11111111011000 #
#437
b10111010011110 "
#438
b1101010000101000 #
#439
b1100000010001100 "
#440
b1111011110101110 #
#441
b10000110111101 "
#442
b11011001100010 #
#443
b1010010111011 "
#444
b1100001101110100 #
#445
b1100010000000011 "
#446
b1011001001011 #
#447
b11011100111101 "
#448
b10000001010001 #
#449
b1111011000001010 "
#450
b1100000011001001 #
#451
b1101010101100001 "
#452
b10111110111101 #
#453
b11111111110000 "
#454
b1011000100 #
#455
b1101100110101000 "
#456
b1100110011000011 #
#457
b1111000010011111 "
#458
b11111000011111 #
#459
b11100111010010 "
#460
b1110010010010010 #
#461
b1100011000101001 "
#462
b1110010010011101 #
#463
b111101101110 "
#464
b11111000011100 #
#465
b10011001001110 "
#466
b1100110010111100 #
#467
b1100000000010001 "
#468
b1011010000 #
#469
b10101010101001 "
#470
b10111110110100 #
#471
b100111101001 "
#472
b1100000011000111 #
#473
b1100100011001010 "
#474
b10000001011100 #
#475
b11110000000010 "
#476
b1011000111110 #
#477
b1110101100111001 "
#478
b1100001101111000 #
#479
b1101111001001110 "
#480
b11011001101000 #
#481
b11111101110010 "
#482
b1111011110100001 #
#483
b1101000101011001 "
#484
b1101010000110001 #
#485
b1111101110100001 "
#486
b11111111011001 #
#487
b11010000101111 "
#488
b1101101011110100 #
#489
b1100001001001001 "
#490
b1110111100010001 #
#491
b1100111111000 "
#492
b11101001111110 #
#493
b1110011010100 "
#494
b1100011011011110 #
#495
b1100000110000110 "
#496
b110111011101 #
#497
b11001001001010 "
#498
b10011110010101 #
#499
b1111111011001011 "
#500
b1100000000000100 #
#501
b1100111100111101 "
#502
b10100101110011 #
#503
b11111011110100 "
#504
b101101111111 #
#505
b1110000100001010 "
#506
b1100011111111110 #
#507
b1110100001000001 "
#508
b11101101101110 #
#509
b11110100001000 "
#510
b1110110011000000 #
#511
b1100101001110101 "
#512
b1101110011110011 #
#513
b11011000110 "
#514
b11111110100011 #
#515
b10110011111000 "
#516
b1101001001110111 #
#517
b1100000001001001 "
#518
b1111101000000111 #
#519
b10001110111001 "
#520
b11010100011001 #
#521
b1001001111011 "
#522
b1100001010111011 #
#523
b1100010011100000 "
#524
b1100001111110 #
#525
b11100001100100 "
#526
b1111001000010 #
#527
b1111001110110110 "
#528
b1100000100110010 #
#529
b1101011100101011 "
#530
b11000101000111 #
#531
b11111111111111 "
#532
b1100111 #
#533
b1101011111001010 "
#534
b1100111000110111 #
#535
b1111001011101101 "
#536
b11111010100101 #
#537
b11100011000101 "
#538
b1110001001110100 #
#539
b1100010100110000 "
#540
b1110011011000101 #
#541
b1000110110110 "
#542
b11110101111111 #
#543
b10010001100011 "
#544
b1100101101011011 #
#545
b1100000000110111 "
#546
b10100101100 #
#547
b10110001100100 "
#548
b10111000011001 #
#549
b11110010011 "
#550
b1100000001110100 #
#551
b1100101000000101 "
#552
b10001001100000 #
#553
b11110011001001 "
#554
b1010000000100 #
#555
b1110100100000001 "
#556
b1100010001000111 #
#557
b1110000001010110 "
#558
b11011110011101 #
#559
b11111100011000 "
#560
b1111010101001011 #
#561
b1100111111000100 "
#562
b1101010111110001 #
#563
b1111110111111110 "
#564
b11111111110111 #
#565
b11001011001000 "
#566
b1101100100001110 #
#567
b1100000110110100 "
#568
b1111000101011011 #
#569
b1110000011100 "
#570
b11100101111110 #
#571
b1101010110011 "
#572
b1100010111010111 #
#573
b1100001000010100 "
#574
b1000000101000 #
#575
b11001110110111 "
#576
b10010110110011 #
#577
b1111110001101111 "
#578
b1100000000011010 #
#579
b1101000011001101 "
#580
b10101100111000 #
#581
b11111101010110 "
#582
b100100101011 #
#583
b1101111011111110 "
#584
b1100100100101101 #
#585
b1110101001110111 "
#586
b11110001000100 #
#587
b11110001001000 "
#588
b1110101010000011 #
#589
b1100100100110011 "
#590
b1101111011110011 #
#591
b100100011110 "
#592
b11111101011000 #
#593
b10101101000001 "
#594
b1101000011010110 #
#595
b1100000000011011 "
#596
b1111110001100010 #
#597
b10010110101000 "
#598
b11001110111110 #
#599
b1000000110101 "
#600
b1100001000010111 #
#601
b1100010111010010 "
#602
b1101010101000 #
#603
b11100101111000 "
#604
b1110000100111 #
#605
b1111000101100111 "
#606
b1100000110110001 #
#607
b1101100100000100 "
#608
b11001011000000 #
#609
b11111111110111 "
#610
b1111111000001010 #
#611
b1101010111111011 "
#612
b1100111110111011 #
#613
b1111010100111111 "
#614
b11111100010110 #
#615
b11011110100011 "
#616
b1110000001100001 #
#617
b1100010001001100 "
#618
b1110100011110101 #
#619
b1001111111000 "
#620
b11110011001101 #
#621
b10001001101011 "
#622
b1100101000001100 #
#623
b1100000001110011 "
#624
b11110000110 #
#625
b10111000010000 "
#626
b10110001101101 #
#627
b10100111001 "
#628
b1100000000111000 #
#629
b1100101101010011 "
#630
b10010001011000 #
#631
b11110101111100 "
#632
b1000111000010 #
#633
b1110011011010001 "
#634
b1100010100101011 #
#635
b1110001001101001 "
#636
b11100010111111 #
#637
b11111010101000 "
#638
b1111001011111001 #
#639
b1100111000111111 "
#640
b1101011111000000 #
#641
b1011010 "
#642
b11111111111111 #
#643
b11000101001111 "
#644
b1101011100110101 #
#645
b1100000100110100 "
#646
b1111001110101010 #
#647
b1111000110110 "
#648
b11100001101010 #
#649
b1100010001001 "
#650
b1100010011100101 #
#651
b1100001010110111 "
#652
b1001001101111 #
#653
b11010100010010 "
#654
b10001111000011 #
#655
b1111101000010100 "
#656
b1100000001000111 #
#657
b1101001001101110 "
#658
b10110011101110 #
#659
b11111110100010 "
#660
b11011010011 #
#661
b1101110011111101 "
#662
b1100101001101110 #
#663
b1110110010110100 "
#664
b11110100000100 #
#665
b11101101110010 "
#666
b1110100001001101 #
#667
b1100100000000100 "
#668
b1110000011111110 #
#669
b101101110011 "
#670
b11111011110111 #
#671
b10100101111100 "
#672
b1100111101000110 #
#673
b1100000000000100 "
#674
b1111111010111110 #
#675
b10011110001010 "
#676
b11001001010010 #
#677
b110111101001 "
#678
b1100000110001001 #
#679
b1100011011011000 "
#680
b1110011001001 #
#681
b11101001111000 "
#682
b1101000000100 #
#683
b1110111100011101 "
#684
b1100001001000110 #
#685
b1101101011101010 "
#686
b11010000101000 #
#687
b11111111011010 "
#688
b1111101110101110 #
#689
b1101010000111010 "
#690
b1101000101010000 #
#691
b1111011110010101 "
#692
b11111101110001 #
#693
b11011001101111 "
#694
b1101111001011001 #
#695
b1100001101111101 "
#696
b1110101100101101 #
#697
b1011000110011 "
#698
b11110000000110 #
#699
b10000001100111 "
#700
b1100100011010000 #
#701
b1100000011000101 "
#702
b100111011101 #
#703
b10111110101100 "
#704
b10101010110011 #
#705
b1011011101 "
#706
b1100000000010001 #
#707
b1100110010110100 "
#708
b10011001000011 #
#709
b11111000011001 "
#710
b111101111010 #
#711
b1110010010101001 "
#712
b1100011000100011 #
#713
b1110010010000110 "
#714
b11100111001100 #
#715
b11111000100010 "
#716
b1111000010101011 #
#717
b1100110011001011 "
#718
b1101100110011110 #
#719
b1010110111 "
#720
b11111111110000 #
#721
b10111111000101 "
#722
b1101010101101010 #
#723
b1100000011001011 "
#724
b1111010111111101 #
#725
b10000001000110 "
#726
b11011101000011 #
#727
b1011001010111 "
#728
b1100010000000111 #
#729
b1100001101110000 "
#730
b1010010101111 #
#731
b11011001011011 "
#732
b10000111001000 #
#733
b1111011110111011 "
#734
b1100000010001010 #
#735
b1101010000011110 "
#736
b10111010010101 #
#737
b11111111010111 "
#738
b10001111000 #
#739
b1101101100001010 "
#740
b1100101111000010 #
#741
b1110111011111000 "
#742
b11110110110000 #
#743
b11101010001000 "
#744
b1110011000011111 #
#745
b1100011011101001 "
#746
b1110001100010101 #
#747
b110111000100 "
#748
b11111010000000 #
#749
b10011110101001 "
#750
b1100110111000110 #
#751
b1100000000000011 "
#752
b100011011 #
#753
b10100101011111 "
#754
b11000011010011 #
#755
b101110011001 "
#756
b1100000100010000 #
#757
b1100011111110010 "
#758
b1111011100000 #
#759
b11101101100100 "
#760
b1011111010111 #
#761
b1110110011011001 "
#762
b1100001011110000 #
#763
b1101110011011101 "
#764
b11010101111101 #
#765
b11111110100110 "
#766
b1111100101010100 #
#767
b1101001010001001 "
#768
b1101001011110110 #
#769
b1111100111101101 "
#770
b11111110110101 #
#771
b11010100101000 "
#772
b1101110001011101 #
#773
b1100001011000010 "
#774
b1110110101101100 #
#775
b1100001100110 "
#776
b11101100101010 #
#777
b1111001011000 "
#778
b1100011110101000 #
#779
b1100000100101101 "
#780
b110000110000 #
#781
b11000100110111 "
#782
b10100011101001 #
#783
b10000001 "
#784
b1100000000000010 #
#785
b1100111000100110 "
#786
b10100000100001 #
#787
b11111010100000 "
#788
b110100101101 #
#789
b1110001010001011 "
#790
b1100011100110000 #
#791
b1110011010101101 "
#792
b11101011000110 #
#793
b11110110000110 "
#794
b1110111001100011 #
#795
b1100101101101001 "
#796
b1101101110001000 #
#797
b10100010010 "
#798
b11111111001011 #
#799
b10111000101011 "
#800
b1101001110101111 #
#801
b1100000001110111 "
#802
b1111100001010100 #
#803
b10001001001010 "
#804
b11011000001001 #
#805
b1010000011100 "
#806
b1100001100111111 #
#807
b1100010000111110 "
#808
b1011011100111 #
#809
b11011110010000 "
#810
b1111111000000 #
#811
b1111010101100101 "
#812
b1100000011100100 #
#813
b1101010111011110 "
#814
b11000000101011 #
#815
b11111111110110 "
#816
b1000011100 #
#817
b1101100100100011 "
#818
b1100110100101000 #
#819
b1111000101000010 "
#820
b11111001000110 #
#821
b11100110001001 "
#822
b1110001111111011 #
#823
b1100010111100010 "
#824
b1110010100110101 #
#825
b1000000010000 "
#826
b11110111110011 #
#827
b10010111000111 "
#828
b1100110001011000 #
#829
b1100000000011001 "
#830
b1101110111 #
#831
b10101100100101 "
#832
b10111101000100 #
#833
b100101000100 "
#834
b1100000010101110 #
#835
b1100100100011111 "
#836
b10000011101100 #
#837
b11110000111011 "
#838
b1010110100010 #
#839
b1110101010011011 "
#840
b1100001110110000 #
#841
b1101111011011101 "
#842
b11011011000000 #
#843
b11111101011100 "
#844
b1111011011111100 #
#845
b1101000011101000 "
#846
b1101010010101011 #
#847
b1111110001001001 "
#848
b11111111100011 #
#849
b11001111001110 "
#850
b1101101001101101 #
#851
b1100001000011110 "
#852
b1110111110110010 #
#853
b1101010010001 "
#854
b11101000111001 #
#855
b1110000111111 "
#856
b1100011010010011 #
#857
b1100000110101011 "
#858
b111010000000 #
#859
b11001010110001 "
#860
b10011100010000 #
#861
b1111111000100100 "
#862
b1100000000001000 #
#863
b1100111110101010 "
#864
b10100111110001 #
#865
b11111100010010 "
#866
b101011011011 #
#867
b1110000001111000 "
#868
b1100100001010000 #
#869
b1110100011011101 "
#870
b11101110101011 #
#871
b11110011010101 "
#872
b1110110000100001 #
#873
b1100101000011010 "
#874
b1101110101111111 #
#875
b11101101100 "
#876
b11111110010000 #
#877
b10110010000000 "
#878
b1101001000000010 #
#879
b1100000000111010 "
#880
b1111101010101110 #
#881
b10010001000011 "
#882
b11010010111011 #
#883
b1000111011011 "
#884
b1100001010001011 #
#885
b1100010100100001 "
#886
b1100100011000 #
#887
b11100010110011 "
#888
b1110110101110 #
#889
b1111001100010010 "
#890
b1100000101010011 #
#891
b1101011110101101 "
#892
b11000110110001 #
#893
b11111111111111 "
#894
b1111111111000000 #
#895
b1101011101001001 "
#896
b1100111010100000 #
#897
b1111001110010000 "
#898
b11111011000111 #
#899
b11100001110111 "
#900
b1110000111100000 #
#901
b1100010011101111 "
#902
b1110011101011111 #
#903
b1001001010110 "
#904
b11110101010000 #
#905
b10001111011001 "
#906
b1100101011111100 #
#907
b1100000001000101 "
#908
b10111010011 #
#909
b10110011011100 "
#910
b10110110100100 #
#911
b11011101100 "
#912
b1100000001100001 #
#913
b1100101001100000 "
#914
b10001011101101 #
#915
b11110011111101 "
#916
b1001101100101 #
#917
b1110100001100101 "
#918
b1100010010000100 #
#919
b1110000011101000 "
#920
b11011111101111 #
#921
b11111011111011 "
#922
b1111010010100111 #
#923
b1100111101010110 "
#924
b1101011001110000 #
#925
b1111111010100101 "
#926
b11111111111011 #
#927
b11001001100010 "
#928
b1101100010001010 #
#929
b1100000110001110 "
#930
b1111000111111110 #
#931
b1110010110010 "
#932
b11100100110100 #
#933
b1101000011011 "
#934
b1100010110010010 #
#935
b1100001000111111 "
#936
b1000011001010 #
#937
b11010000011001 "
#938
b10010100101011 #
#939
b1111101111001000 "
#940
b1100000000100101 #
#941
b1101000100111111 "
#942
b10101110110011 #
#943
b11111101101101 "
#944
b100010000101 #
#945
b1101111001101111 "
#946
b1100100110000011 #
#947
b1110101100010101 "
#948
b11110001111011 #
#949
b11110000001111 "
#950
b1110100111100101 #
#951
b1100100011011101 "
#952
b1101111110000011 #
#953
b100111000011 "
#954
b11111100111111 #
#955
b10101011000101 "
#956
b1101000001100101 #
#957
b1100000000010011 "
#958
b1111110100001001 #
#959
b10011000101111 "
#960
b11001101011100 #
#961
b111110010011 "
#962
b1100000111101110 #
#963
b1100011000011000 "
#964
b1101101000000 #
#965
b11100111000001 "
#966
b1101110010001 #
#967
b1111000011000100 "
#968
b1100000111011000 #
#969
b1101100110001001 "
#970
b11001100100110 #
#971
b11111111110001 "
#972
b1111110101100011 #
#973
b1101010101111110 "
#974
b1101000000101001 #
#975
b1111010111100100 "
#976
b11111100110001 #
#977
b11011101010000 "
#978
b1101111111010000 #
#979
b1100010000010000 "
#980
b1110100110010001 #
#981
b1010010010110 "
#982
b11110010011000 #
#983
b10000111011110 "
#984
b1100100110110011 #
#985
b1100000010000111 "
#986
b100000101100 #
#987
b10111010000100 "
#988
b10101111110100 #
#989
b10010010010 "
#990
b1100000000101011 #
#991
b1100101110110011 "
#992
b10010011100001 #
#993
b11110110101001 "
#994
b1000100100001 #
#995
b1110011000110111 "
#996
b1100010101101110 #
#997
b1110001011111110 "
#998
b11100100001011 #
#999
b11111010000101 "
#1000
b1111001001010101 #
#1001
b1100110111010110 "
#1002
b1101100001000011 #
#1003
b100000001 "
#1004
b11111111111101 #
#1005
b11000011100100 "
#1006
b1101011010110101 #
#1007
b1100000100010101 "
#1008
b1111010001001110 #
#1009
b1111011001001 "
#1010
b11100000011011 #
#1011
b1011111101110 "
#1012
b1100010010100110 #
#1013
b1100001011101000 "
#1014
b1001100001111 #
#1015
b11010101101111 "
#1016
b10001100111000 #
#1017
b1111100101101101 "
#1018
b1100000001011000 #
#1019
b1101001011100100 "
#1020
b10110101100101 #
#1021
b11111110110011 "
#1022
b11000101100 #
#1023
b1101110001110010 "
#1024
b1100101011001010 #
#1025
b1110110101010100 "
#1026
b11110100110110 #
#1027
b11101100110100 "
#1028
b1110011110110010 #
#1029
b1100011110110100 "
#1030
b1110000110010001 #
#1031
b110000010111 "
#1032
b11111011011000 #
#1033
b10100011111100 "
#1034
b1100111011011010 #
#1035
b1100000000000010 "
#1036
b1111111101100110 #
#1037
b10100000001101 "
#1038
b11000111101010 #
#1039
b110101000110 "
#1040
b1100000101100101 #
#1041
b1100011100100100 "
#1042
b1110101011110 #
#1043
b11101010111100 "
#1044
b1100101101010 #
#1045
b1110111001111100 "
#1046
b1100001001110011 #
#1047
b1101101101110011 "
#1048
b11010010001000 #
#1049
b11111111001101 "
#1050
b1111101100000111 #
#1051
b1101001111000001 "
#1052
b1101000111000100 #
#1053
b1111100000111010 "
#1054
b11111110000110 #
#1055
b11011000010110 "
#1056
b1101110111001011 #
#1057
b1100001101000111 "
#1058
b1110101111001011 #
#1059
b1011011001111 "
#1060
b11101111001011 #
#1061
b1111111010111 "
#1062
b1100100001111100 #
#1063
b1100000011011111 "
#1064
b101010000010 #
#1065
b11000000011011 "
#1066
b10101000110101 #
#1067
b1000110110 "
#1068
b1100000000001011 #
#1069
b1100110100011001 "
#1070
b10011011001001 #
#1071
b11111001000000 "
#1072
b111011010111 #
#1073
b1110010000010010 "
#1074
b1100011001101011 #
#1075
b1110010100011110 "
#1076
b11101000010011 #
#1077
b11110111111001 "
#1078
b1111000000001001 #
#1079
b1100110001100111 "
#1080
b1101101000100100 #
#1081
b1101011110 "
#1082
b11111111101000 #
#1083
b10111101010101 "
#1084
b1101010011101110 #
#1085
b1100000010110001 "
#1086
b1111011010100010 #
#1087
b10000011010110 "
#1088
b11011011101110 #
#1089
b1010110111010 "
#1090
b1100001111001110 #
#1091
b1100001110100111 "
#1092
b1010101001101 #
#1093
b11011010110010 "
#1094
b10000100111001 #
#1095
b1111011100010101 "
#1096
b1100000010100001 #
#1097
b1101010010011001 "
#1098
b10111100000111 #
#1099
b11111111100010 "
#1100
b1111010001 #
#1101
b1101101010000010 "
#1102
b1100110000100011 #
#1103
b1110111110011001 "
#1104
b11110111011100 #
#1105
b11101001000100 "
#1106
b1110010110000111 #
#1107
b1100011010011110 "
#1108
b1110001110101010 #
#1109
b111001100111 "
#1110
b11111001011011 #
#1111
b10011100100101 "
#1112
b1100110101011111 #
#1113
b1100000000000111 "
#1114
b111000010 #
#1115
b10100111011110 "
#1116
b11000001100111 #
#1117
b101011110100 "
#1118
b1100000011110011 #
#1119
b1100100001000011 "
#1120
b1111101110010 #
#1121
b11101110100001 "
#1122
b1011100111011 #
#1123
b1110110000111001 "
#1124
b1100001100100011 #
#1125
b1101110101101001 "
#1126
b11010111011000 #
#1127
b11111110010011 "
#1128
b1111100010101101 #
#1129
b1101001000010100 "
#1130
b1101001101101110 #
#1131
b1111101010010100 "
#1132
b11111111000100 #
#1133
b11010011001010 "
#1134
b1101101111010010 #
#1135
b1100001010010011 "
#1136
b1110111000001101 #
#1137
b1100100000000 "
#1138
b11101011101001 #
#1139
b1110111000100 "
#1140
b1100011101011001 #
#1141
b1100000101001110 "
#1142
b110011010101 #
#1143
b11000110100001 "
#1144
b10100001100111 #
#1145
b1111111111011001 "
#1146
b1100000000000001 #
#1147
b1100111010010000 "
#1148
b10100010100011 #
#1149
b11111011000010 "
#1150
b110010001001 #
#1151
b1110000111110111 "
#1152
b1100011101111101 #
#1153
b1110011101000111 "
#1154
b11101100000111 #
#1155
b11110101010111 "
#1156
b1110110111000011 #
#1157
b1100101100001011 "
#1158
b1101110000010010 #
#1159
b10110111001 "
#1160
b11111110111101 #
#1161
b10110110110110 "
#1162
b1101001100110110 #
#1163
b1100000001100100 "
#1164
b1111100011111010 #
#1165
b10001011010111 "
#1166
b11010110101110 #
#1167
b1001101111101 "
#1168
b1100001100001011 #
#1169
b1100010001111011 "
#1170
b1011110000011 #
#1171
b11011111100011 "
#1172
b1111100101111 #
#1173
b1111010011000000 "
#1174
b1100000100000000 #
#1175
b1101011001011101 "
#1176
b11000010011001 #
#1177
b11111111111011 "
#1178
b101110101 #
